docker TCP_MAERTS.cpu default 22 22 2017-03-31_04-52-42 4.4.0-70-generic x86_64 33.0 30.25
docker TCP_MAERTS.net default 22 22 2017-03-31_04-52-42 4.4.0-70-generic x86_64 85.0 90.11
docker TCP_STREAM.cpu default 22 22 2017-03-31_04-52-42 4.4.0-70-generic x86_64 77.0 69.79
docker TCP_STREAM.net default 22 22 2017-03-31_04-52-42 4.4.0-70-generic x86_64 60.0 65.08
docker TCP_MAERTS.cpu default 253 253 2017-04-02_04-52-42 4.4.0-70-generic x86_64 33.0 30.78
docker TCP_MAERTS.net default 253 253 2017-04-02_04-52-42 4.4.0-70-generic x86_64 85.0 92.73
docker TCP_STREAM.cpu default 253 253 2017-04-02_04-52-42 4.4.0-70-generic x86_64 77.0 66.00
docker TCP_STREAM.net default 253 253 2017-04-02_04-52-42 4.4.0-70-generic x86_64 60.0 65.07
docker TCP_MAERTS.cpu default 282 282 2017-03-31_04-52-42 4.4.0-70-generic x86_64 33.0 30.25
docker TCP_MAERTS.net default 282 282 2017-03-31_04-52-42 4.4.0-70-generic x86_64 85.0 90.11
docker TCP_STREAM.cpu default 282 282 2017-03-31_04-52-42 4.4.0-70-generic x86_64 77.0 69.79
docker TCP_STREAM.net default 282 282 2017-03-31_04-52-42 4.4.0-70-generic x86_64 60.0 65.08
docker TCP_MAERTS.cpu default 282 282 2017-04-02_04-52-42 4.4.0-70-generic x86_64 33.0 30.78
docker TCP_MAERTS.net default 282 282 2017-04-02_04-52-42 4.4.0-70-generic x86_64 85.0 92.73
docker TCP_STREAM.cpu default 282 282 2017-04-02_04-52-42 4.4.0-70-generic x86_64 77.0 66.00
docker TCP_STREAM.net default 282 282 2017-04-02_04-52-42 4.4.0-70-generic x86_64 60.0 65.07
