{
    "testName": "Benchmark.iperf3",
    "specs": {
        "default": {
            "client_params": "-O 4 -t 64",
            "extra_success_links": {"png": "iperf3.png"},
            "extra_fail_links": {"png": "iperf3.png"}
        },
        "zerocopy": {
            "client_params": "-O 4 -t 64 -Z",
            "extra_success_links": {"png": "iperf3.png"},
            "extra_fail_links": {"png": "iperf3.png"}
        },
        "udp": {
            "client_params": "-t 60 -u -b 400M",
            "extra_success_links": {"png": "iperf3.png"},
            "extra_fail_links": {"png": "iperf3.png"}
        }
    }
}

