{
    "test_sets":[
        {
            "name":"Sequential_Output",
            "test_cases":[
                {
                    "name":"Block",
                    "measurements":[
                        {
                            "name":"speed",
                            "unit":"K/Sec"
                        },
                        {
                            "name":"CPU",
                            "unit":"%CPU"
                        }
                    ]
                },
                {
                    "name":"PerChr",
                    "measurements":[
                        {
                            "name":"speed",
                            "unit":"K/Sec"
                        },
                        {
                            "name":"CPU",
                            "unit":"%CPU"
                        }
                    ]
                },
                {
                    "name":"Rewrite",
                    "measurements":[
                        {
                            "name":"speed",
                            "unit":"K/Sec"
                        },
                        {
                            "name":"CPU",
                            "unit":"%CPU"
                        }
                    ]
                }
            ]
        },
        {
            "name":"Sequential_Input",
            "test_cases":[
                {
                    "name":"PerChr",
                    "measurements":[
                        {
                            "name":"speed",
                            "unit":"K/Sec"
                        },
                        {
                            "name":"CPU",
                            "unit":"%CPU"
                        }
                    ]
                },
                {
                    "name":"Block",
                    "measurements":[
                        {
                            "name":"speed",
                            "unit":"K/Sec"
                        },
                        {
                            "name":"CPU",
                            "unit":"%CPU"
                        }
                    ]
                }
            ]
        },
        {
            "name":"Random",
            "test_cases":[
                {
                    "name":"Seeks",
                    "measurements":[
                        {
                            "name":"speed",
                            "unit":"/Sec"
                        },
                        {
                            "name":"CPU",
                            "unit":"%CPU"
                        }
                    ]
                }
            ]
        },
        {
            "name":"Sequential_Create",
            "test_cases":[
                {
                    "name":"Create",
                    "measurements":[
                        {
                            "name":"speed",
                            "unit":"/sec"
                        },
                        {
                            "name":"CPU",
                            "unit":"%CPU"
                        }
                    ]
                },
                {
                    "name":"Read",
                    "measurements":[
                        {
                            "name":"speed",
                            "unit":"/sec"
                        },
                        {
                            "name":"CPU",
                            "unit":"%CPU"
                        }
                    ]
                },
                {
                    "name":"Delete",
                    "measurements":[
                        {
                            "name":"speed",
                            "unit":"/sec"
                        },
                        {
                            "name":"CPU",
                            "unit":"%CPU"
                        }
                    ]
                }
            ]
        },
        {
            "name":"Random_Create",
			"test_cases":[
                {
                    "name":"Create",
                    "measurements":[
                        {
                            "name":"speed",
                            "unit":"/sec"
                        },
                        {
                            "name":"CPU",
                            "unit":"%CPU"
                        }
                    ]
                },
                {
                    "name":"Read",
                    "measurements":[
                        {
                            "name":"speed",
                            "unit":"/sec"
                        },
                        {
                            "name":"CPU",
                            "unit":"%CPU"
                        }
                    ]
                },
                {
                    "name":"Delete",
                    "measurements":[
                        {
                            "name":"speed",
                            "unit":"/sec"
                        },
                        {
                            "name":"CPU",
                            "unit":"%CPU"
                        }
                    ]
                }
            ]
        }
    ]
}
