{
    "testName": "Functional.bc",
    "fail_case": [
        {
            "fail_regexp": "some test regexp",
            "fail_message": "some test message"
        },
        {
            "fail_regexp": "Bug",
            "fail_message": "Bug or Oops detected in system log",
            "use_syslog": "1"
        }
    ],
    "specs": {
        "bc-mult": {
            "EXPR":"2*2",
            "RESULT": "4"
        },
        "bc-add": {
            "EXPR":"3+3",
            "RESULT":"6"
        },
        "default": {
            "EXPR":"3+3",
            "RESULT":"6"
        },
        "bc-by2": {
            "PER_JOB_BUILD": "true",
            "tarball": "by2.tar.gz",
            "EXPR":"3+3",
            "RESULT":"12"
        }
    }
}

