{
    "testName": "Functional.synctest",
    "specs": {
        "sata": {
            "MOUNT_BLOCKDEV":"$SATA_DEV",
            "MOUNT_POINT":"$SATA_MP",
            "LEN":"10",
            "LOOP":"10"
        },
        "mmc": {
            "MOUNT_BLOCKDEV":"$MMC_DEV",
            "MOUNT_POINT":"$MMC_MP",
            "LEN":"10",
            "LOOP":"10"
        },
        "usb": {
            "MOUNT_BLOCKDEV":"$USB_DEV",
            "MOUNT_POINT":"$USB_MP",
            "LEN":"10",
            "LOOP":"10"
        },
        "default": {
            "MOUNT_BLOCKDEV":"ROOT",
            "MOUNT_POINT":"$BOARD_TESTDIR/work",
            "LEN":"30",
            "LOOP":"10"
        }
    }
}
